…
## Bootstrapping

``` r
# Set a random seed value so we can obtain the same "random" results
set.seed(631)

# Generate the 2000 bootstrap samples
boot_samps <- sim_dat %>% 
  bootstraps(times = 2000)

boot_samps
```

    ## # Bootstrap sampling 
    ## # A tibble: 2,000 × 2
    ##    splits          id           
    ##    <list>          <chr>        
    ##  1 <split [20/8]>  Bootstrap0001
    ##  2 <split [20/6]>  Bootstrap0002
    ##  3 <split [20/6]>  Bootstrap0003
    ##  4 <split [20/6]>  Bootstrap0004
    ##  5 <split [20/10]> Bootstrap0005
    ##  6 <split [20/10]> Bootstrap0006
    ##  7 <split [20/7]>  Bootstrap0007
    ##  8 <split [20/6]>  Bootstrap0008
    ##  9 <split [20/8]>  Bootstrap0009
    ## 10 <split [20/6]>  Bootstrap0010
    ## # … with 1,990 more rows
…
# Fit the model to each split and store the information
# Also, obtain the tidy model information
boot_models <- boot_samps %>% 
  mutate(
    model = map(splits, fit_mlr_boots),
    coef_info = map(model, tidy)
    )

boots_coefs <- boot_models %>% 
  unnest(coef_info)

boots_coefs
```

    ## # A tibble: 8,000 × 8
    ##    splits         id            model  term     estim…¹ std.e…² stati…³  p.value
    ##    <list>         <chr>         <list> <chr>      <dbl>   <dbl>   <dbl>    <dbl>
    ##  1 <split [20/8]> Bootstrap0001 <lm>   (Interc…   1.64   0.809    2.02  6.01e- 2
    ##  2 <split [20/8]> Bootstrap0001 <lm>   x1         0.236  0.101    2.34  3.28e- 2
    ##  3 <split [20/8]> Bootstrap0001 <lm>   x2        -0.488  0.0117 -41.6   9.69e-18
    ##  4 <split [20/8]> Bootstrap0001 <lm>   x3Yes      1.09   0.690    1.58  1.34e- 1
    ##  5 <split [20/6]> Bootstrap0002 <lm>   (Interc…   3.30   1.04     3.16  6.05e- 3
    ##  6 <split [20/6]> Bootstrap0002 <lm>   x1         0.360  0.114    3.14  6.27e- 3
    ##  7 <split [20/6]> Bootstrap0002 <lm>   x2        -0.512  0.0146 -35.0   1.54e-16
    ##  8 <split [20/6]> Bootstrap0002 <lm>   x3Yes      0.538  0.797    0.675 5.09e- 1
    ##  9 <split [20/6]> Bootstrap0003 <lm>   (Interc…   3.28   0.829    3.95  1.14e- 3
    ## 10 <split [20/6]> Bootstrap0003 <lm>   x1         0.370  0.121    3.05  7.65e- 3
    ## # … with 7,990 more rows, and abbreviated variable names ¹​estimate, ²​std.error,
    ## #   ³​statistic
…
